{
  "development": {
    "username": "root",
    "password": "pipedrive",
    "database": "pipedrive",
    "host": "db-dev",
    "dialect": "mysql",
    "logging": false,
    "operatorsAliases": false
  }
}
